Epoch;Time;Learning Rate;Training Accuracy;Training Loss;Training Error;Test Accuracy;Test Loss;Test Error
1;12;0.001000;0.96;0.141;0.151;0.97;0.098;0.084
2;23;0.000990;0.95;0.121;0.130;0.97;0.083;0.075
3;35;0.000980;0.98;0.062;0.069;0.98;0.061;0.048
